[
	{
		"page": 1,
		"pages": 12,
		"per_page": "5",
		"total": 57
	},
	[
		{
			"indicator": {
				"id": "SP.POP.TOTL",
				"value": "Population, total"
			},
			"country": {
				"id": "CN",
				"value": "China"
			},
			"value": "698355000",
			"decimal": "0",
			"date": "1964"
		},
		{
			"indicator": {
				"id": "SP.POP.TOTL",
				"value": "Population, total"
			},
			"country": {
				"id": "CN",
				"value": "China"
			},
			"value": "682335000",
			"decimal": "0",
			"date": "1963"
		},
		{
			"indicator": {
				"id": "SP.POP.TOTL",
				"value": "Population, total"
			},
			"country": {
				"id": "CN",
				"value": "China"
			},
			"value": "665770000",
			"decimal": "0",
			"date": "1962"
		},
		{
			"indicator": {
				"id": "SP.POP.TOTL",
				"value": "Population, total"
			},
			"country": {
				"id": "CN",
				"value": "China"
			},
			"value": "660330000",
			"decimal": "0",
			"date": "1961"
		},
		{
			"indicator": {
				"id": "SP.POP.TOTL",
				"value": "Population, total"
			},
			"country": {
				"id": "CN",
				"value": "China"
			},
			"value": "667070000",
			"decimal": "0",
			"date": "1960"
		}
	]
]
